Les statistiques avec R – 1 Le tidyverse
…
Figure 1.1: Suivre les trois principes rend les données tidy: les variables sont en colonnes, les observations sont sur des lignes, et chaques valeurs sont dans des cellules différentes.

Pourquoi s’assurer que vos données sont tidy? Il y a deux avantages importants:

Un avantage général de choisir une seule façon de conserver vos données. Si vous utilisez une structure de données consitante, il est plus facile d’apprendre à utiliser les outils qui fonctionneront avec ce type de structure, étant donné que celles-ci possède une uniformité sous-jacente.

Un avantage spécifique de placer les variables en colonnes car ceci permet de vectoriser les opérations dans R. Ceci implique que vos fonctions seront plus rapides lorsque viendra le temps de les exécuter.

Voici un exemple de données tidy qui sont accessibles dans la librairie tidyverse.

diamonds
#> # A tibble: 53,940 × 10
#>    carat cut       color clarity depth table price     x     y     z
#>    <dbl> <ord>     <ord> <ord>   <dbl> <dbl> <int> <dbl> <dbl> <dbl>
#>  1  0.23 Ideal     E     SI2      61.5    55   326  3.95  3.98  2.43
#>  2  0.21 Premium   E     SI1      59.8    61   326  3.89  3.84  2.31
#>  3  0.23 Good      E     VS1      56.9    65   327  4.05  4.07  2.31
#>  4  0.29 Premium   I     VS2      62.4    58   334  4.2   4.23  2.63
#>  5  0.31 Good      J     SI2      63.3    58   335  4.34  4.35  2.75
#>  6  0.24 Very Good J     VVS2     62.8    57   336  3.94  3.96  2.48
#>  7  0.24 Very Good I     VVS1     62.3    57   336  3.95  3.98  2.47
#>  8  0.26 Very Good H     SI1      61.9    55   337  4.07  4.11  2.53
#>  9  0.22 Fair      E     VS2      65.1    61   337  3.87  3.78  2.49
#> 10  0.23 Very Good H     VS1      59.4    61   338  4     4.05  2.39
#> # ℹ 53,930 more rows

1.2.1 La base de données flights

Pour visualiser facilement une base de données sous forme tibble, il suffit de taper son nom dans la console. Nous allons utiliser la base de données flights. Par exemple:

flights
#> # A tibble: 336,776 × 19
#>     year month   day dep_time sched_dep_time dep_delay arr_time sched_arr_time
#>    <int> <int> <int>    <int>          <int>     <dbl>    <int>          <int>
#>  1  2013     1     1      517            515         2      830            819
#>  2  2013     1     1      533            529         4      850            830
#>  3  2013     1     1      542            540         2      923            850
#>  4  2013     1     1      544            545        -1     1004           1022
#>  5  2013     1     1      554            600        -6      812            837
#>  6  2013     1     1      554            558        -4      740            728
#>  7  2013     1     1      555            600        -5      913            854
#>  8  2013     1     1      557            600        -3      709            723
#>  9  2013     1     1      557            600        -3      838            846
#> 10  2013     1     1      558            600        -2      753            745
#> # ℹ 336,766 more rows
#> # ℹ 11 more variables: arr_delay <dbl>, carrier <chr>, flight <int>,
#> #   tailnum <chr>, origin <chr>, dest <chr>, air_time <dbl>, distance <dbl>,
#> #   hour <dbl>, minute <dbl>, time_hour <dttm>
…
